{
  "name": "climate-api",
  "dependencies": {
    "body-parser": "registry:dt/body-parser#0.0.0+20160726204056"
  },
  "globalDependencies": {
    "express": "registry:dt/express#4.0.0+20160708185218",
    "express-serve-static-core": "registry:dt/express-serve-static-core#4.0.0+20161012061536",
    "mime": "registry:dt/mime#0.0.0+20160316155526",
    "morgan": "registry:dt/morgan#1.7.0+20160524142355",
    "node": "registry:dt/node#6.0.0+20161019125345",
    "pug": "registry:dt/pug#2.0.0-beta6+20160919072324",
    "serve-static": "registry:dt/serve-static#0.0.0+20160606155157"
  }
}
